Example analysis • sastats
…
#compare the estimated observed cases between age group by year
df2 <- df %>%
  group_by(year,age_group) %>%
  summarise(mean = round(mean(number_est), 3))

## `summarise()` has grouped output by 'year'. You can override using the
## `.groups` argument.

df2

## # A tibble: 66 × 3
## # Groups:   year [9]
##     year age_group   mean
##    <dbl> <chr>      <dbl>
##  1  2006 0-17       4248.
##  2  2006 0-4         371 
##  3  2006 15-24     21270 
##  4  2006 25-34       371 
##  5  2006 35-44     10820.
##  6  2006 45-54      2293.
##  7  2006 55-64      1339 
##  8  2006 75+        1339 
##  9  2006 Total       371 
## 10  2007 0-17        376 
## # … with 56 more rows
…
